# root: /lustre/MHPC17/pierocor/thesis/tf_logs/inc_v3_2048/
# Epochs per phase (1_a, 1_b, 1, 2, g): (5, 5, 2, 5, 20)
# Batch size:300
# K checked in (5, 100), threshold: 20
# Name	Test_Error	Training_Time	Sparsity	Sil_sc-dt1	Sil_sc-dt1_1u	K	MI	Sil_sc-1u	Phases	BS
600_200_18_elu_elu_elu_elu_elu_None_0.001_0.0001  	0.068	56.3	1.000  	-0.054	-0.049	30	0.365	0.082	['1_a', '1_b', '2', 'g']	300
600t_200_18_elu_elu_elu_elu_elu_None_0.001_0.0001  	0.047	50.1	1.000  	0.030	0.036	29	0.440	0.055	['1_a', '1_b', '2', 'g']	300
600_150_18_elu_elu_elu_elu_elu_None_0.001_0.0001  	0.050	55.5	1.000  	0.022	0.020	24	0.449	0.069	['1_a', '1_b', '2', 'g']	300
600t_150_18_elu_elu_elu_elu_elu_None_0.001_0.0001  	0.046	47.8	1.000  	0.024	0.023	25	0.445	0.054	['1_a', '1_b', '2', 'g']	300
600_100_18_elu_elu_elu_elu_elu_None_0.001_0.0001  	0.051	51.2	1.000  	0.039	0.035	21	0.439	0.065	['1_a', '1_b', '2', 'g']	300
600t_100_18_elu_elu_elu_elu_elu_None_0.001_0.0001  	0.046	49.2	1.000  	0.033	0.036	24	0.432	0.054	['1_a', '1_b', '2', 'g']	300
600_50_18_elu_elu_elu_elu_elu_None_0.001_0.0001  	0.050	51.8	1.000  	0.029	0.028	40	0.468	0.051	['1_a', '1_b', '2', 'g']	300
600t_50_18_elu_elu_elu_elu_elu_None_0.001_0.0001  	0.052	49.6	1.000  	0.020	0.028	21	0.440	0.062	['1_a', '1_b', '2', 'g']	300
500_200_18_elu_elu_elu_elu_elu_None_0.001_0.0001  	0.094	48.4	0.999  	nan	-0.450	29	0.151	-0.245	['1_a', '1_b', '2', 'g']	300
500t_200_18_elu_elu_elu_elu_elu_None_0.001_0.0001  	0.055	49.0	1.000  	0.007	0.009	23	0.424	0.071	['1_a', '1_b', '2', 'g']	300
500_150_18_elu_elu_elu_elu_elu_None_0.001_0.0001  	0.051	49.8	1.000  	0.004	0.008	23	0.432	0.060	['1_a', '1_b', '2', 'g']	300
500t_150_18_elu_elu_elu_elu_elu_None_0.001_0.0001  	0.047	45.6	1.000  	0.035	0.034	21	0.406	0.064	['1_a', '1_b', '2', 'g']	300
500_100_18_elu_elu_elu_elu_elu_None_0.001_0.0001  	0.049	49.6	1.000  	0.031	0.017	25	0.438	0.074	['1_a', '1_b', '2', 'g']	300
500t_100_18_elu_elu_elu_elu_elu_None_0.001_0.0001  	0.046	47.5	1.000  	0.010	-0.001	29	0.426	0.045	['1_a', '1_b', '2', 'g']	300
500_50_18_elu_elu_elu_elu_elu_None_0.001_0.0001  	0.052	49.7	1.000  	0.013	0.019	25	0.438	0.063	['1_a', '1_b', '2', 'g']	300
500t_50_18_elu_elu_elu_elu_elu_None_0.001_0.0001  	0.050	48.6	1.000  	-0.001	-0.000	29	0.434	0.044	['1_a', '1_b', '2', 'g']	300
400_200_18_elu_elu_elu_elu_elu_None_0.001_0.0001  	0.053	45.6	1.000  	-0.007	-0.008	22	0.437	0.075	['1_a', '1_b', '2', 'g']	300
400t_200_18_elu_elu_elu_elu_elu_None_0.001_0.0001  	0.047	48.4	1.000  	0.019	0.021	25	0.460	0.050	['1_a', '1_b', '2', 'g']	300
400_150_18_elu_elu_elu_elu_elu_None_0.001_0.0001  	0.051	41.6	1.000  	0.039	0.041	22	0.465	0.070	['1_a', '1_b', '2', 'g']	300
400t_150_18_elu_elu_elu_elu_elu_None_0.001_0.0001  	0.046	44.8	1.000  	0.010	-0.002	26	0.442	0.051	['1_a', '1_b', '2', 'g']	300
400_100_18_elu_elu_elu_elu_elu_None_0.001_0.0001  	0.051	44.2	1.000  	0.030	0.024	26	0.444	0.067	['1_a', '1_b', '2', 'g']	300
400t_100_18_elu_elu_elu_elu_elu_None_0.001_0.0001  	0.046	45.3	1.000  	0.026	0.019	41	0.440	0.036	['1_a', '1_b', '2', 'g']	300
400_50_18_elu_elu_elu_elu_elu_None_0.001_0.0001  	0.052	44.3	1.000  	0.015	0.008	23	0.441	0.068	['1_a', '1_b', '2', 'g']	300
400t_50_18_elu_elu_elu_elu_elu_None_0.001_0.0001  	0.048	46.5	1.000  	0.016	0.018	25	0.452	0.052	['1_a', '1_b', '2', 'g']	300
300_200_18_elu_elu_elu_elu_elu_None_0.001_0.0001  	0.050	40.7	1.000  	0.021	0.021	40	0.467	0.053	['1_a', '1_b', '2', 'g']	300
300t_200_18_elu_elu_elu_elu_elu_None_0.001_0.0001  	0.048	42.7	1.000  	0.019	0.022	24	0.439	0.045	['1_a', '1_b', '2', 'g']	300
300_150_18_elu_elu_elu_elu_elu_None_0.001_0.0001  	0.051	40.6	1.000  	0.009	0.007	26	0.453	0.068	['1_a', '1_b', '2', 'g']	300
300t_150_18_elu_elu_elu_elu_elu_None_0.001_0.0001  	0.048	42.4	1.000  	0.022	0.028	23	0.447	0.058	['1_a', '1_b', '2', 'g']	300
300_100_18_elu_elu_elu_elu_elu_None_0.001_0.0001  	0.051	43.0	1.000  	0.017	0.022	28	0.445	0.054	['1_a', '1_b', '2', 'g']	300
300t_100_18_elu_elu_elu_elu_elu_None_0.001_0.0001  	0.048	38.9	1.000  	0.018	-0.002	22	0.418	0.062	['1_a', '1_b', '2', 'g']	300
300_50_18_elu_elu_elu_elu_elu_None_0.001_0.0001  	0.053	41.8	1.000  	0.008	0.009	22	0.439	0.068	['1_a', '1_b', '2', 'g']	300
300t_50_18_elu_elu_elu_elu_elu_None_0.001_0.0001  	0.047	39.6	1.000  	0.008	-0.005	23	0.383	0.050	['1_a', '1_b', '2', 'g']	300
150_200_18_elu_elu_elu_elu_elu_None_0.001_0.0001  	0.055	40.1	1.000  	0.002	-0.004	21	0.407	0.068	['1_a', '1_b', '2', 'g']	300
150t_200_18_elu_elu_elu_elu_elu_None_0.001_0.0001  	0.054	38.9	1.000  	0.018	0.010	21	0.410	0.067	['1_a', '1_b', '2', 'g']	300
150_150_18_elu_elu_elu_elu_elu_None_0.001_0.0001  	0.055	40.5	1.000  	-0.004	-0.006	29	0.428	0.065	['1_a', '1_b', '2', 'g']	300
150t_150_18_elu_elu_elu_elu_elu_None_0.001_0.0001  	0.053	38.9	1.000  	0.020	0.017	21	0.384	0.068	['1_a', '1_b', '2', 'g']	300
150_100_18_elu_elu_elu_elu_elu_None_0.001_0.0001  	0.056	39.4	1.000  	-0.002	-0.007	23	0.458	0.059	['1_a', '1_b', '2', 'g']	300
150t_100_18_elu_elu_elu_elu_elu_None_0.001_0.0001  	0.052	38.0	1.000  	0.024	0.030	29	0.424	0.063	['1_a', '1_b', '2', 'g']	300
150_50_18_elu_elu_elu_elu_elu_None_0.001_0.0001  	0.057	42.6	1.000  	-0.017	-0.013	25	0.421	0.058	['1_a', '1_b', '2', 'g']	300
150t_50_18_elu_elu_elu_elu_elu_None_0.001_0.0001  	0.051	38.9	1.000  	0.007	-0.009	23	0.413	0.049	['1_a', '1_b', '2', 'g']	300
600_200_18_elu_elu_elu_elu_elu_None_0.001_0.0001  	0.049	67.8	1.000  	0.026	0.030	28	0.446	0.072	['g', 'g']	300
600t_200_18_elu_elu_elu_elu_elu_None_0.001_0.0001  	0.045	61.1	1.000  	0.001	-0.005	35	0.426	0.050	['g', 'g']	300
600_150_18_elu_elu_elu_elu_elu_None_0.001_0.0001  	0.052	63.5	1.000  	-0.010	-0.005	22	0.419	0.070	['g', 'g']	300
600t_150_18_elu_elu_elu_elu_elu_None_0.001_0.0001  	0.045	62.4	1.000  	0.021	0.015	26	0.441	0.070	['g', 'g']	300
600_100_18_elu_elu_elu_elu_elu_None_0.001_0.0001  	0.050	66.5	1.000  	0.024	0.019	31	0.442	0.070	['g', 'g']	300
600t_100_18_elu_elu_elu_elu_elu_None_0.001_0.0001  	0.044	61.3	1.000  	0.037	0.041	23	0.463	0.060	['g', 'g']	300
600_50_18_elu_elu_elu_elu_elu_None_0.001_0.0001  	0.052	64.6	1.000  	-0.010	-0.021	36	0.444	0.052	['g', 'g']	300
600t_50_18_elu_elu_elu_elu_elu_None_0.001_0.0001  	0.046	64.0	1.000  	0.027	0.019	21	0.403	0.050	['g', 'g']	300
500_200_18_elu_elu_elu_elu_elu_None_0.001_0.0001  	0.049	63.8	1.000  	0.022	0.026	24	0.439	0.079	['g', 'g']	300
500t_200_18_elu_elu_elu_elu_elu_None_0.001_0.0001  	0.044	61.3	1.000  	0.024	0.026	23	0.451	0.062	['g', 'g']	300
500_150_18_elu_elu_elu_elu_elu_None_0.001_0.0001  	0.049	59.1	1.000  	0.025	0.021	23	0.456	0.078	['g', 'g']	300
500t_150_18_elu_elu_elu_elu_elu_None_0.001_0.0001  	0.044	58.5	1.000  	0.043	0.034	22	0.424	0.054	['g', 'g']	300
500_100_18_elu_elu_elu_elu_elu_None_0.001_0.0001  	0.050	56.8	1.000  	0.017	0.011	21	0.431	0.072	['g', 'g']	300
500t_100_18_elu_elu_elu_elu_elu_None_0.001_0.0001  	0.044	61.8	1.000  	0.025	0.026	21	0.436	0.060	['g', 'g']	300
500_50_18_elu_elu_elu_elu_elu_None_0.001_0.0001  	0.051	58.8	1.000  	0.008	0.004	22	0.415	0.065	['g', 'g']	300
500t_50_18_elu_elu_elu_elu_elu_None_0.001_0.0001  	0.046	58.9	1.000  	0.013	0.015	25	0.431	0.050	['g', 'g']	300
400_200_18_elu_elu_elu_elu_elu_None_0.001_0.0001  	0.050	56.4	1.000  	0.010	0.004	34	0.433	0.055	['g', 'g']	300
400t_200_18_elu_elu_elu_elu_elu_None_0.001_0.0001  	0.044	55.3	1.000  	0.029	0.034	26	0.425	0.054	['g', 'g']	300
400_150_18_elu_elu_elu_elu_elu_None_0.001_0.0001  	0.051	57.3	1.000  	0.014	0.012	32	0.446	0.065	['g', 'g']	300
400t_150_18_elu_elu_elu_elu_elu_None_0.001_0.0001  	0.044	56.8	1.000  	0.031	0.036	27	0.449	0.051	['g', 'g']	300
400_100_18_elu_elu_elu_elu_elu_None_0.001_0.0001  	0.052	59.9	1.000  	0.012	0.015	27	0.435	0.069	['g', 'g']	300
400t_100_18_elu_elu_elu_elu_elu_None_0.001_0.0001  	0.045	56.0	1.000  	0.033	0.024	55	0.453	0.045	['g', 'g']	300
400_50_18_elu_elu_elu_elu_elu_None_0.001_0.0001  	0.051	58.3	1.000  	0.005	0.004	22	0.439	0.081	['g', 'g']	300
400t_50_18_elu_elu_elu_elu_elu_None_0.001_0.0001  	0.047	56.7	1.000  	0.027	0.024	24	0.459	0.059	['g', 'g']	300
300_200_18_elu_elu_elu_elu_elu_None_0.001_0.0001  	0.051	53.6	1.000  	0.014	0.019	22	0.447	0.071	['g', 'g']	300
300t_200_18_elu_elu_elu_elu_elu_None_0.001_0.0001  	0.045	50.3	1.000  	0.024	0.026	29	0.456	0.042	['g', 'g']	300
300_150_18_elu_elu_elu_elu_elu_None_0.001_0.0001  	0.051	52.0	1.000  	0.032	0.031	33	0.446	0.056	['g', 'g']	300
300t_150_18_elu_elu_elu_elu_elu_None_0.001_0.0001  	0.045	52.1	1.000  	0.028	0.022	29	0.441	0.052	['g', 'g']	300
300_100_18_elu_elu_elu_elu_elu_None_0.001_0.0001  	0.051	52.1	1.000  	0.012	0.008	37	0.434	0.059	['g', 'g']	300
300t_100_18_elu_elu_elu_elu_elu_None_0.001_0.0001  	0.046	52.2	1.000  	0.009	0.019	26	0.436	0.055	['g', 'g']	300
300_50_18_elu_elu_elu_elu_elu_None_0.001_0.0001  	0.053	52.5	1.000  	-0.014	-0.014	30	0.425	0.067	['g', 'g']	300
300t_50_18_elu_elu_elu_elu_elu_None_0.001_0.0001  	0.046	52.4	1.000  	0.012	0.005	33	0.453	0.051	['g', 'g']	300
150_200_18_elu_elu_elu_elu_elu_None_0.001_0.0001  	0.054	51.7	1.000  	0.017	0.021	28	0.444	0.065	['g', 'g']	300
150t_200_18_elu_elu_elu_elu_elu_None_0.001_0.0001  	0.046	45.1	1.000  	0.032	0.032	31	0.438	0.049	['g', 'g']	300
150_150_18_elu_elu_elu_elu_elu_None_0.001_0.0001  	0.053	48.8	1.000  	0.001	-0.006	22	0.430	0.073	['g', 'g']	300
150t_150_18_elu_elu_elu_elu_elu_None_0.001_0.0001  	0.047	51.4	1.000  	0.037	0.029	22	0.434	0.049	['g', 'g']	300
150_100_18_elu_elu_elu_elu_elu_None_0.001_0.0001  	0.054	50.5	1.000  	0.009	0.005	21	0.435	0.085	['g', 'g']	300
150t_100_18_elu_elu_elu_elu_elu_None_0.001_0.0001  	0.048	50.7	1.000  	0.018	0.014	22	0.434	0.053	['g', 'g']	300
150_50_18_elu_elu_elu_elu_elu_None_0.001_0.0001  	0.054	50.6	1.000  	-0.001	-0.001	29	0.433	0.064	['g', 'g']	300
150t_50_18_elu_elu_elu_elu_elu_None_0.001_0.0001  	0.048	49.3	1.000  	0.030	0.026	45	0.463	0.046	['g', 'g']	300
